^C:\USERS\EMILIA\DESKTOP\FALL20\CS460\FRAMEWORK\FRAMEWORK\SRC\FRAMEWORK\DEPENDENCIES\SRC\GLAD\GLAD.C
/c /IC:\USERS\EMILIA\DESKTOP\FALL20\CS460\FRAMEWORK\FRAMEWORK\SRC\DEPENDENCIES/INCLUDE /IC:\USERS\EMILIA\DESKTOP\FALL20\CS460\FRAMEWORK\FRAMEWORK\SRC\DEPENDENCIES/SRC /IC:\USERS\EMILIA\DESKTOP\FALL20\CS460\FRAMEWORK\FRAMEWORK\SRC\DEPENDENCIES\SRC\IMGUI /AIC:\USERS\EMILIA\DESKTOP\FALL20\CS460\FRAMEWORK\FRAMEWORK\SRC\/DEPENDENCIES/INCLUDE /AIC:\USERS\EMILIA\DESKTOP\FALL20\CS460\FRAMEWORK\FRAMEWORK\SRC\/DEPENDENCIES/SRC /ZI /JMC /nologo /W3 /WX- /diagnostics:column /sdl /Od /D _DEBUG /D _CONSOLE /D _UNICODE /D UNICODE /Gm- /EHsc /RTC1 /MDd /GS /fp:precise /permissive- /Zc:wchar_t /Zc:forScope /Zc:inline /Fo"X64\DEBUG\\" /Fd"X64\DEBUG\VC142.PDB" /Gd /TC /FC C:\USERS\EMILIA\DESKTOP\FALL20\CS460\FRAMEWORK\FRAMEWORK\SRC\FRAMEWORK\DEPENDENCIES\SRC\GLAD\GLAD.C
^C:\USERS\EMILIA\DESKTOP\FALL20\CS460\FRAMEWORK\FRAMEWORK\SRC\FRAMEWORK\DEPENDENCIES\SRC\IMGUIZMO\IMGUIZMO.CPP
/c /IC:\USERS\EMILIA\DESKTOP\FALL20\CS460\FRAMEWORK\FRAMEWORK\SRC\DEPENDENCIES/INCLUDE /IC:\USERS\EMILIA\DESKTOP\FALL20\CS460\FRAMEWORK\FRAMEWORK\SRC\DEPENDENCIES/SRC /IC:\USERS\EMILIA\DESKTOP\FALL20\CS460\FRAMEWORK\FRAMEWORK\SRC\DEPENDENCIES\SRC\IMGUI /AIC:\USERS\EMILIA\DESKTOP\FALL20\CS460\FRAMEWORK\FRAMEWORK\SRC\/DEPENDENCIES/INCLUDE /AIC:\USERS\EMILIA\DESKTOP\FALL20\CS460\FRAMEWORK\FRAMEWORK\SRC\/DEPENDENCIES/SRC /ZI /JMC /nologo /W3 /WX- /diagnostics:column /sdl /Od /D _DEBUG /D _CONSOLE /D _UNICODE /D UNICODE /Gm- /EHsc /RTC1 /MDd /GS /fp:precise /permissive- /Zc:wchar_t /Zc:forScope /Zc:inline /Fo"X64\DEBUG\\" /Fd"X64\DEBUG\VC142.PDB" /Gd /TP /FC C:\USERS\EMILIA\DESKTOP\FALL20\CS460\FRAMEWORK\FRAMEWORK\SRC\FRAMEWORK\DEPENDENCIES\SRC\IMGUIZMO\IMGUIZMO.CPP
^C:\USERS\EMILIA\DESKTOP\FALL20\CS460\FRAMEWORK\FRAMEWORK\SRC\FRAMEWORK\DEPENDENCIES\SRC\IMGUI\IMGUI.CPP
/c /IC:\USERS\EMILIA\DESKTOP\FALL20\CS460\FRAMEWORK\FRAMEWORK\SRC\DEPENDENCIES/INCLUDE /IC:\USERS\EMILIA\DESKTOP\FALL20\CS460\FRAMEWORK\FRAMEWORK\SRC\DEPENDENCIES/SRC /IC:\USERS\EMILIA\DESKTOP\FALL20\CS460\FRAMEWORK\FRAMEWORK\SRC\DEPENDENCIES\SRC\IMGUI /AIC:\USERS\EMILIA\DESKTOP\FALL20\CS460\FRAMEWORK\FRAMEWORK\SRC\/DEPENDENCIES/INCLUDE /AIC:\USERS\EMILIA\DESKTOP\FALL20\CS460\FRAMEWORK\FRAMEWORK\SRC\/DEPENDENCIES/SRC /ZI /JMC /nologo /W3 /WX- /diagnostics:column /sdl /Od /D _DEBUG /D _CONSOLE /D _UNICODE /D UNICODE /Gm- /EHsc /RTC1 /MDd /GS /fp:precise /permissive- /Zc:wchar_t /Zc:forScope /Zc:inline /Fo"X64\DEBUG\\" /Fd"X64\DEBUG\VC142.PDB" /Gd /TP /FC C:\USERS\EMILIA\DESKTOP\FALL20\CS460\FRAMEWORK\FRAMEWORK\SRC\FRAMEWORK\DEPENDENCIES\SRC\IMGUI\IMGUI.CPP
^C:\USERS\EMILIA\DESKTOP\FALL20\CS460\FRAMEWORK\FRAMEWORK\SRC\FRAMEWORK\DEPENDENCIES\SRC\IMGUI\IMGUI_DEMO.CPP
/c /IC:\USERS\EMILIA\DESKTOP\FALL20\CS460\FRAMEWORK\FRAMEWORK\SRC\DEPENDENCIES/INCLUDE /IC:\USERS\EMILIA\DESKTOP\FALL20\CS460\FRAMEWORK\FRAMEWORK\SRC\DEPENDENCIES/SRC /IC:\USERS\EMILIA\DESKTOP\FALL20\CS460\FRAMEWORK\FRAMEWORK\SRC\DEPENDENCIES\SRC\IMGUI /AIC:\USERS\EMILIA\DESKTOP\FALL20\CS460\FRAMEWORK\FRAMEWORK\SRC\/DEPENDENCIES/INCLUDE /AIC:\USERS\EMILIA\DESKTOP\FALL20\CS460\FRAMEWORK\FRAMEWORK\SRC\/DEPENDENCIES/SRC /ZI /JMC /nologo /W3 /WX- /diagnostics:column /sdl /Od /D _DEBUG /D _CONSOLE /D _UNICODE /D UNICODE /Gm- /EHsc /RTC1 /MDd /GS /fp:precise /permissive- /Zc:wchar_t /Zc:forScope /Zc:inline /Fo"X64\DEBUG\\" /Fd"X64\DEBUG\VC142.PDB" /Gd /TP /FC C:\USERS\EMILIA\DESKTOP\FALL20\CS460\FRAMEWORK\FRAMEWORK\SRC\FRAMEWORK\DEPENDENCIES\SRC\IMGUI\IMGUI_DEMO.CPP
^C:\USERS\EMILIA\DESKTOP\FALL20\CS460\FRAMEWORK\FRAMEWORK\SRC\FRAMEWORK\DEPENDENCIES\SRC\IMGUI\IMGUI_DRAW.CPP
/c /IC:\USERS\EMILIA\DESKTOP\FALL20\CS460\FRAMEWORK\FRAMEWORK\SRC\DEPENDENCIES/INCLUDE /IC:\USERS\EMILIA\DESKTOP\FALL20\CS460\FRAMEWORK\FRAMEWORK\SRC\DEPENDENCIES/SRC /IC:\USERS\EMILIA\DESKTOP\FALL20\CS460\FRAMEWORK\FRAMEWORK\SRC\DEPENDENCIES\SRC\IMGUI /AIC:\USERS\EMILIA\DESKTOP\FALL20\CS460\FRAMEWORK\FRAMEWORK\SRC\/DEPENDENCIES/INCLUDE /AIC:\USERS\EMILIA\DESKTOP\FALL20\CS460\FRAMEWORK\FRAMEWORK\SRC\/DEPENDENCIES/SRC /ZI /JMC /nologo /W3 /WX- /diagnostics:column /sdl /Od /D _DEBUG /D _CONSOLE /D _UNICODE /D UNICODE /Gm- /EHsc /RTC1 /MDd /GS /fp:precise /permissive- /Zc:wchar_t /Zc:forScope /Zc:inline /Fo"X64\DEBUG\\" /Fd"X64\DEBUG\VC142.PDB" /Gd /TP /FC C:\USERS\EMILIA\DESKTOP\FALL20\CS460\FRAMEWORK\FRAMEWORK\SRC\FRAMEWORK\DEPENDENCIES\SRC\IMGUI\IMGUI_DRAW.CPP
^C:\USERS\EMILIA\DESKTOP\FALL20\CS460\FRAMEWORK\FRAMEWORK\SRC\FRAMEWORK\DEPENDENCIES\SRC\IMGUI\IMGUI_IMPL_GLFW.CPP
/c /IC:\USERS\EMILIA\DESKTOP\FALL20\CS460\FRAMEWORK\FRAMEWORK\SRC\DEPENDENCIES/INCLUDE /IC:\USERS\EMILIA\DESKTOP\FALL20\CS460\FRAMEWORK\FRAMEWORK\SRC\DEPENDENCIES/SRC /IC:\USERS\EMILIA\DESKTOP\FALL20\CS460\FRAMEWORK\FRAMEWORK\SRC\DEPENDENCIES\SRC\IMGUI /AIC:\USERS\EMILIA\DESKTOP\FALL20\CS460\FRAMEWORK\FRAMEWORK\SRC\/DEPENDENCIES/INCLUDE /AIC:\USERS\EMILIA\DESKTOP\FALL20\CS460\FRAMEWORK\FRAMEWORK\SRC\/DEPENDENCIES/SRC /ZI /JMC /nologo /W3 /WX- /diagnostics:column /sdl /Od /D _DEBUG /D _CONSOLE /D _UNICODE /D UNICODE /Gm- /EHsc /RTC1 /MDd /GS /fp:precise /permissive- /Zc:wchar_t /Zc:forScope /Zc:inline /Fo"X64\DEBUG\\" /Fd"X64\DEBUG\VC142.PDB" /Gd /TP /FC C:\USERS\EMILIA\DESKTOP\FALL20\CS460\FRAMEWORK\FRAMEWORK\SRC\FRAMEWORK\DEPENDENCIES\SRC\IMGUI\IMGUI_IMPL_GLFW.CPP
^C:\USERS\EMILIA\DESKTOP\FALL20\CS460\FRAMEWORK\FRAMEWORK\SRC\FRAMEWORK\DEPENDENCIES\SRC\IMGUI\IMGUI_IMPL_OPENGL3.CPP
/c /IC:\USERS\EMILIA\DESKTOP\FALL20\CS460\FRAMEWORK\FRAMEWORK\SRC\DEPENDENCIES/INCLUDE /IC:\USERS\EMILIA\DESKTOP\FALL20\CS460\FRAMEWORK\FRAMEWORK\SRC\DEPENDENCIES/SRC /IC:\USERS\EMILIA\DESKTOP\FALL20\CS460\FRAMEWORK\FRAMEWORK\SRC\DEPENDENCIES\SRC\IMGUI /AIC:\USERS\EMILIA\DESKTOP\FALL20\CS460\FRAMEWORK\FRAMEWORK\SRC\/DEPENDENCIES/INCLUDE /AIC:\USERS\EMILIA\DESKTOP\FALL20\CS460\FRAMEWORK\FRAMEWORK\SRC\/DEPENDENCIES/SRC /ZI /JMC /nologo /W3 /WX- /diagnostics:column /sdl /Od /D _DEBUG /D _CONSOLE /D _UNICODE /D UNICODE /Gm- /EHsc /RTC1 /MDd /GS /fp:precise /permissive- /Zc:wchar_t /Zc:forScope /Zc:inline /Fo"X64\DEBUG\\" /Fd"X64\DEBUG\VC142.PDB" /Gd /TP /FC C:\USERS\EMILIA\DESKTOP\FALL20\CS460\FRAMEWORK\FRAMEWORK\SRC\FRAMEWORK\DEPENDENCIES\SRC\IMGUI\IMGUI_IMPL_OPENGL3.CPP
^C:\USERS\EMILIA\DESKTOP\FALL20\CS460\FRAMEWORK\FRAMEWORK\SRC\FRAMEWORK\DEPENDENCIES\SRC\IMGUI\IMGUI_WIDGETS.CPP
/c /IC:\USERS\EMILIA\DESKTOP\FALL20\CS460\FRAMEWORK\FRAMEWORK\SRC\DEPENDENCIES/INCLUDE /IC:\USERS\EMILIA\DESKTOP\FALL20\CS460\FRAMEWORK\FRAMEWORK\SRC\DEPENDENCIES/SRC /IC:\USERS\EMILIA\DESKTOP\FALL20\CS460\FRAMEWORK\FRAMEWORK\SRC\DEPENDENCIES\SRC\IMGUI /AIC:\USERS\EMILIA\DESKTOP\FALL20\CS460\FRAMEWORK\FRAMEWORK\SRC\/DEPENDENCIES/INCLUDE /AIC:\USERS\EMILIA\DESKTOP\FALL20\CS460\FRAMEWORK\FRAMEWORK\SRC\/DEPENDENCIES/SRC /ZI /JMC /nologo /W3 /WX- /diagnostics:column /sdl /Od /D _DEBUG /D _CONSOLE /D _UNICODE /D UNICODE /Gm- /EHsc /RTC1 /MDd /GS /fp:precise /permissive- /Zc:wchar_t /Zc:forScope /Zc:inline /Fo"X64\DEBUG\\" /Fd"X64\DEBUG\VC142.PDB" /Gd /TP /FC C:\USERS\EMILIA\DESKTOP\FALL20\CS460\FRAMEWORK\FRAMEWORK\SRC\FRAMEWORK\DEPENDENCIES\SRC\IMGUI\IMGUI_WIDGETS.CPP
^C:\USERS\EMILIA\DESKTOP\FALL20\CS460\FRAMEWORK\FRAMEWORK\SRC\FRAMEWORK\SOURCE\CAMERA.CPP
/c /IC:\USERS\EMILIA\DESKTOP\FALL20\CS460\FRAMEWORK\FRAMEWORK\SRC\DEPENDENCIES/INCLUDE /IC:\USERS\EMILIA\DESKTOP\FALL20\CS460\FRAMEWORK\FRAMEWORK\SRC\DEPENDENCIES/SRC /IC:\USERS\EMILIA\DESKTOP\FALL20\CS460\FRAMEWORK\FRAMEWORK\SRC\DEPENDENCIES\SRC\IMGUI /AIC:\USERS\EMILIA\DESKTOP\FALL20\CS460\FRAMEWORK\FRAMEWORK\SRC\/DEPENDENCIES/INCLUDE /AIC:\USERS\EMILIA\DESKTOP\FALL20\CS460\FRAMEWORK\FRAMEWORK\SRC\/DEPENDENCIES/SRC /ZI /JMC /nologo /W3 /WX- /diagnostics:column /sdl /Od /D _DEBUG /D _CONSOLE /D _UNICODE /D UNICODE /Gm- /EHsc /RTC1 /MDd /GS /fp:precise /permissive- /Zc:wchar_t /Zc:forScope /Zc:inline /Fo"X64\DEBUG\\" /Fd"X64\DEBUG\VC142.PDB" /Gd /TP /FC C:\USERS\EMILIA\DESKTOP\FALL20\CS460\FRAMEWORK\FRAMEWORK\SRC\FRAMEWORK\SOURCE\CAMERA.CPP
^C:\USERS\EMILIA\DESKTOP\FALL20\CS460\FRAMEWORK\FRAMEWORK\SRC\FRAMEWORK\SOURCE\GEOMETRY.CPP
/c /IC:\USERS\EMILIA\DESKTOP\FALL20\CS460\FRAMEWORK\FRAMEWORK\SRC\DEPENDENCIES/INCLUDE /IC:\USERS\EMILIA\DESKTOP\FALL20\CS460\FRAMEWORK\FRAMEWORK\SRC\DEPENDENCIES/SRC /IC:\USERS\EMILIA\DESKTOP\FALL20\CS460\FRAMEWORK\FRAMEWORK\SRC\DEPENDENCIES\SRC\IMGUI /AIC:\USERS\EMILIA\DESKTOP\FALL20\CS460\FRAMEWORK\FRAMEWORK\SRC\/DEPENDENCIES/INCLUDE /AIC:\USERS\EMILIA\DESKTOP\FALL20\CS460\FRAMEWORK\FRAMEWORK\SRC\/DEPENDENCIES/SRC /ZI /JMC /nologo /W3 /WX- /diagnostics:column /sdl /Od /D _DEBUG /D _CONSOLE /D _UNICODE /D UNICODE /Gm- /EHsc /RTC1 /MDd /GS /fp:precise /permissive- /Zc:wchar_t /Zc:forScope /Zc:inline /Fo"X64\DEBUG\\" /Fd"X64\DEBUG\VC142.PDB" /Gd /TP /FC C:\USERS\EMILIA\DESKTOP\FALL20\CS460\FRAMEWORK\FRAMEWORK\SRC\FRAMEWORK\SOURCE\GEOMETRY.CPP
^C:\USERS\EMILIA\DESKTOP\FALL20\CS460\FRAMEWORK\FRAMEWORK\SRC\FRAMEWORK\SOURCE\GIZMO.CPP
/c /IC:\USERS\EMILIA\DESKTOP\FALL20\CS460\FRAMEWORK\FRAMEWORK\SRC\DEPENDENCIES/INCLUDE /IC:\USERS\EMILIA\DESKTOP\FALL20\CS460\FRAMEWORK\FRAMEWORK\SRC\DEPENDENCIES/SRC /IC:\USERS\EMILIA\DESKTOP\FALL20\CS460\FRAMEWORK\FRAMEWORK\SRC\DEPENDENCIES\SRC\IMGUI /AIC:\USERS\EMILIA\DESKTOP\FALL20\CS460\FRAMEWORK\FRAMEWORK\SRC\/DEPENDENCIES/INCLUDE /AIC:\USERS\EMILIA\DESKTOP\FALL20\CS460\FRAMEWORK\FRAMEWORK\SRC\/DEPENDENCIES/SRC /ZI /JMC /nologo /W3 /WX- /diagnostics:column /sdl /Od /D _DEBUG /D _CONSOLE /D _UNICODE /D UNICODE /Gm- /EHsc /RTC1 /MDd /GS /fp:precise /permissive- /Zc:wchar_t /Zc:forScope /Zc:inline /Fo"X64\DEBUG\\" /Fd"X64\DEBUG\VC142.PDB" /Gd /TP /FC C:\USERS\EMILIA\DESKTOP\FALL20\CS460\FRAMEWORK\FRAMEWORK\SRC\FRAMEWORK\SOURCE\GIZMO.CPP
^C:\USERS\EMILIA\DESKTOP\FALL20\CS460\FRAMEWORK\FRAMEWORK\SRC\FRAMEWORK\SOURCE\GRAPHICS_MANAGER.CPP
/c /IC:\USERS\EMILIA\DESKTOP\FALL20\CS460\FRAMEWORK\FRAMEWORK\SRC\DEPENDENCIES/INCLUDE /IC:\USERS\EMILIA\DESKTOP\FALL20\CS460\FRAMEWORK\FRAMEWORK\SRC\DEPENDENCIES/SRC /IC:\USERS\EMILIA\DESKTOP\FALL20\CS460\FRAMEWORK\FRAMEWORK\SRC\DEPENDENCIES\SRC\IMGUI /AIC:\USERS\EMILIA\DESKTOP\FALL20\CS460\FRAMEWORK\FRAMEWORK\SRC\/DEPENDENCIES/INCLUDE /AIC:\USERS\EMILIA\DESKTOP\FALL20\CS460\FRAMEWORK\FRAMEWORK\SRC\/DEPENDENCIES/SRC /ZI /JMC /nologo /W3 /WX- /diagnostics:column /sdl /Od /D _DEBUG /D _CONSOLE /D _UNICODE /D UNICODE /Gm- /EHsc /RTC1 /MDd /GS /fp:precise /permissive- /Zc:wchar_t /Zc:forScope /Zc:inline /Fo"X64\DEBUG\\" /Fd"X64\DEBUG\VC142.PDB" /Gd /TP /FC C:\USERS\EMILIA\DESKTOP\FALL20\CS460\FRAMEWORK\FRAMEWORK\SRC\FRAMEWORK\SOURCE\GRAPHICS_MANAGER.CPP
^C:\USERS\EMILIA\DESKTOP\FALL20\CS460\FRAMEWORK\FRAMEWORK\SRC\FRAMEWORK\SOURCE\IMPORTER.CPP
/c /IC:\USERS\EMILIA\DESKTOP\FALL20\CS460\FRAMEWORK\FRAMEWORK\SRC\DEPENDENCIES/INCLUDE /IC:\USERS\EMILIA\DESKTOP\FALL20\CS460\FRAMEWORK\FRAMEWORK\SRC\DEPENDENCIES/SRC /IC:\USERS\EMILIA\DESKTOP\FALL20\CS460\FRAMEWORK\FRAMEWORK\SRC\DEPENDENCIES\SRC\IMGUI /AIC:\USERS\EMILIA\DESKTOP\FALL20\CS460\FRAMEWORK\FRAMEWORK\SRC\/DEPENDENCIES/INCLUDE /AIC:\USERS\EMILIA\DESKTOP\FALL20\CS460\FRAMEWORK\FRAMEWORK\SRC\/DEPENDENCIES/SRC /ZI /JMC /nologo /W3 /WX- /diagnostics:column /sdl /Od /D _DEBUG /D _CONSOLE /D _UNICODE /D UNICODE /Gm- /EHsc /RTC1 /MDd /GS /fp:precise /permissive- /Zc:wchar_t /Zc:forScope /Zc:inline /Fo"X64\DEBUG\\" /Fd"X64\DEBUG\VC142.PDB" /Gd /TP /FC C:\USERS\EMILIA\DESKTOP\FALL20\CS460\FRAMEWORK\FRAMEWORK\SRC\FRAMEWORK\SOURCE\IMPORTER.CPP
^C:\USERS\EMILIA\DESKTOP\FALL20\CS460\FRAMEWORK\FRAMEWORK\SRC\FRAMEWORK\SOURCE\LIGHT.CPP
/c /IC:\USERS\EMILIA\DESKTOP\FALL20\CS460\FRAMEWORK\FRAMEWORK\SRC\DEPENDENCIES/INCLUDE /IC:\USERS\EMILIA\DESKTOP\FALL20\CS460\FRAMEWORK\FRAMEWORK\SRC\DEPENDENCIES/SRC /IC:\USERS\EMILIA\DESKTOP\FALL20\CS460\FRAMEWORK\FRAMEWORK\SRC\DEPENDENCIES\SRC\IMGUI /AIC:\USERS\EMILIA\DESKTOP\FALL20\CS460\FRAMEWORK\FRAMEWORK\SRC\/DEPENDENCIES/INCLUDE /AIC:\USERS\EMILIA\DESKTOP\FALL20\CS460\FRAMEWORK\FRAMEWORK\SRC\/DEPENDENCIES/SRC /ZI /JMC /nologo /W3 /WX- /diagnostics:column /sdl /Od /D _DEBUG /D _CONSOLE /D _UNICODE /D UNICODE /Gm- /EHsc /RTC1 /MDd /GS /fp:precise /permissive- /Zc:wchar_t /Zc:forScope /Zc:inline /Fo"X64\DEBUG\\" /Fd"X64\DEBUG\VC142.PDB" /Gd /TP /FC C:\USERS\EMILIA\DESKTOP\FALL20\CS460\FRAMEWORK\FRAMEWORK\SRC\FRAMEWORK\SOURCE\LIGHT.CPP
^C:\USERS\EMILIA\DESKTOP\FALL20\CS460\FRAMEWORK\FRAMEWORK\SRC\FRAMEWORK\SOURCE\MAIN.CPP
/c /IC:\USERS\EMILIA\DESKTOP\FALL20\CS460\FRAMEWORK\FRAMEWORK\SRC\DEPENDENCIES/INCLUDE /IC:\USERS\EMILIA\DESKTOP\FALL20\CS460\FRAMEWORK\FRAMEWORK\SRC\DEPENDENCIES/SRC /IC:\USERS\EMILIA\DESKTOP\FALL20\CS460\FRAMEWORK\FRAMEWORK\SRC\DEPENDENCIES\SRC\IMGUI /AIC:\USERS\EMILIA\DESKTOP\FALL20\CS460\FRAMEWORK\FRAMEWORK\SRC\/DEPENDENCIES/INCLUDE /AIC:\USERS\EMILIA\DESKTOP\FALL20\CS460\FRAMEWORK\FRAMEWORK\SRC\/DEPENDENCIES/SRC /ZI /JMC /nologo /W3 /WX- /diagnostics:column /sdl /Od /D _DEBUG /D _CONSOLE /D _UNICODE /D UNICODE /Gm- /EHsc /RTC1 /MDd /GS /fp:precise /permissive- /Zc:wchar_t /Zc:forScope /Zc:inline /Fo"X64\DEBUG\\" /Fd"X64\DEBUG\VC142.PDB" /Gd /TP /FC C:\USERS\EMILIA\DESKTOP\FALL20\CS460\FRAMEWORK\FRAMEWORK\SRC\FRAMEWORK\SOURCE\MAIN.CPP
^C:\USERS\EMILIA\DESKTOP\FALL20\CS460\FRAMEWORK\FRAMEWORK\SRC\FRAMEWORK\SOURCE\MESH.CPP
/c /IC:\USERS\EMILIA\DESKTOP\FALL20\CS460\FRAMEWORK\FRAMEWORK\SRC\DEPENDENCIES/INCLUDE /IC:\USERS\EMILIA\DESKTOP\FALL20\CS460\FRAMEWORK\FRAMEWORK\SRC\DEPENDENCIES/SRC /IC:\USERS\EMILIA\DESKTOP\FALL20\CS460\FRAMEWORK\FRAMEWORK\SRC\DEPENDENCIES\SRC\IMGUI /AIC:\USERS\EMILIA\DESKTOP\FALL20\CS460\FRAMEWORK\FRAMEWORK\SRC\/DEPENDENCIES/INCLUDE /AIC:\USERS\EMILIA\DESKTOP\FALL20\CS460\FRAMEWORK\FRAMEWORK\SRC\/DEPENDENCIES/SRC /ZI /JMC /nologo /W3 /WX- /diagnostics:column /sdl /Od /D _DEBUG /D _CONSOLE /D _UNICODE /D UNICODE /Gm- /EHsc /RTC1 /MDd /GS /fp:precise /permissive- /Zc:wchar_t /Zc:forScope /Zc:inline /Fo"X64\DEBUG\\" /Fd"X64\DEBUG\VC142.PDB" /Gd /TP /FC C:\USERS\EMILIA\DESKTOP\FALL20\CS460\FRAMEWORK\FRAMEWORK\SRC\FRAMEWORK\SOURCE\MESH.CPP
^C:\USERS\EMILIA\DESKTOP\FALL20\CS460\FRAMEWORK\FRAMEWORK\SRC\FRAMEWORK\SOURCE\OBJECT.CPP
/c /IC:\USERS\EMILIA\DESKTOP\FALL20\CS460\FRAMEWORK\FRAMEWORK\SRC\DEPENDENCIES/INCLUDE /IC:\USERS\EMILIA\DESKTOP\FALL20\CS460\FRAMEWORK\FRAMEWORK\SRC\DEPENDENCIES/SRC /IC:\USERS\EMILIA\DESKTOP\FALL20\CS460\FRAMEWORK\FRAMEWORK\SRC\DEPENDENCIES\SRC\IMGUI /AIC:\USERS\EMILIA\DESKTOP\FALL20\CS460\FRAMEWORK\FRAMEWORK\SRC\/DEPENDENCIES/INCLUDE /AIC:\USERS\EMILIA\DESKTOP\FALL20\CS460\FRAMEWORK\FRAMEWORK\SRC\/DEPENDENCIES/SRC /ZI /JMC /nologo /W3 /WX- /diagnostics:column /sdl /Od /D _DEBUG /D _CONSOLE /D _UNICODE /D UNICODE /Gm- /EHsc /RTC1 /MDd /GS /fp:precise /permissive- /Zc:wchar_t /Zc:forScope /Zc:inline /Fo"X64\DEBUG\\" /Fd"X64\DEBUG\VC142.PDB" /Gd /TP /FC C:\USERS\EMILIA\DESKTOP\FALL20\CS460\FRAMEWORK\FRAMEWORK\SRC\FRAMEWORK\SOURCE\OBJECT.CPP
^C:\USERS\EMILIA\DESKTOP\FALL20\CS460\FRAMEWORK\FRAMEWORK\SRC\FRAMEWORK\SOURCE\RESOURCES.CPP
/c /IC:\USERS\EMILIA\DESKTOP\FALL20\CS460\FRAMEWORK\FRAMEWORK\SRC\DEPENDENCIES/INCLUDE /IC:\USERS\EMILIA\DESKTOP\FALL20\CS460\FRAMEWORK\FRAMEWORK\SRC\DEPENDENCIES/SRC /IC:\USERS\EMILIA\DESKTOP\FALL20\CS460\FRAMEWORK\FRAMEWORK\SRC\DEPENDENCIES\SRC\IMGUI /AIC:\USERS\EMILIA\DESKTOP\FALL20\CS460\FRAMEWORK\FRAMEWORK\SRC\/DEPENDENCIES/INCLUDE /AIC:\USERS\EMILIA\DESKTOP\FALL20\CS460\FRAMEWORK\FRAMEWORK\SRC\/DEPENDENCIES/SRC /ZI /JMC /nologo /W3 /WX- /diagnostics:column /sdl /Od /D _DEBUG /D _CONSOLE /D _UNICODE /D UNICODE /Gm- /EHsc /RTC1 /MDd /GS /fp:precise /permissive- /Zc:wchar_t /Zc:forScope /Zc:inline /Fo"X64\DEBUG\\" /Fd"X64\DEBUG\VC142.PDB" /Gd /TP /FC C:\USERS\EMILIA\DESKTOP\FALL20\CS460\FRAMEWORK\FRAMEWORK\SRC\FRAMEWORK\SOURCE\RESOURCES.CPP
^C:\USERS\EMILIA\DESKTOP\FALL20\CS460\FRAMEWORK\FRAMEWORK\SRC\FRAMEWORK\SOURCE\SCENE.CPP
/c /IC:\USERS\EMILIA\DESKTOP\FALL20\CS460\FRAMEWORK\FRAMEWORK\SRC\DEPENDENCIES/INCLUDE /IC:\USERS\EMILIA\DESKTOP\FALL20\CS460\FRAMEWORK\FRAMEWORK\SRC\DEPENDENCIES/SRC /IC:\USERS\EMILIA\DESKTOP\FALL20\CS460\FRAMEWORK\FRAMEWORK\SRC\DEPENDENCIES\SRC\IMGUI /AIC:\USERS\EMILIA\DESKTOP\FALL20\CS460\FRAMEWORK\FRAMEWORK\SRC\/DEPENDENCIES/INCLUDE /AIC:\USERS\EMILIA\DESKTOP\FALL20\CS460\FRAMEWORK\FRAMEWORK\SRC\/DEPENDENCIES/SRC /ZI /JMC /nologo /W3 /WX- /diagnostics:column /sdl /Od /D _DEBUG /D _CONSOLE /D _UNICODE /D UNICODE /Gm- /EHsc /RTC1 /MDd /GS /fp:precise /permissive- /Zc:wchar_t /Zc:forScope /Zc:inline /Fo"X64\DEBUG\\" /Fd"X64\DEBUG\VC142.PDB" /Gd /TP /FC C:\USERS\EMILIA\DESKTOP\FALL20\CS460\FRAMEWORK\FRAMEWORK\SRC\FRAMEWORK\SOURCE\SCENE.CPP
^C:\USERS\EMILIA\DESKTOP\FALL20\CS460\FRAMEWORK\FRAMEWORK\SRC\FRAMEWORK\SOURCE\SCENE_LOADER.CPP
/c /IC:\USERS\EMILIA\DESKTOP\FALL20\CS460\FRAMEWORK\FRAMEWORK\SRC\DEPENDENCIES/INCLUDE /IC:\USERS\EMILIA\DESKTOP\FALL20\CS460\FRAMEWORK\FRAMEWORK\SRC\DEPENDENCIES/SRC /IC:\USERS\EMILIA\DESKTOP\FALL20\CS460\FRAMEWORK\FRAMEWORK\SRC\DEPENDENCIES\SRC\IMGUI /AIC:\USERS\EMILIA\DESKTOP\FALL20\CS460\FRAMEWORK\FRAMEWORK\SRC\/DEPENDENCIES/INCLUDE /AIC:\USERS\EMILIA\DESKTOP\FALL20\CS460\FRAMEWORK\FRAMEWORK\SRC\/DEPENDENCIES/SRC /ZI /JMC /nologo /W3 /WX- /diagnostics:column /sdl /Od /D _DEBUG /D _CONSOLE /D _UNICODE /D UNICODE /Gm- /EHsc /RTC1 /MDd /GS /fp:precise /permissive- /Zc:wchar_t /Zc:forScope /Zc:inline /Fo"X64\DEBUG\\" /Fd"X64\DEBUG\VC142.PDB" /Gd /TP /FC C:\USERS\EMILIA\DESKTOP\FALL20\CS460\FRAMEWORK\FRAMEWORK\SRC\FRAMEWORK\SOURCE\SCENE_LOADER.CPP
^C:\USERS\EMILIA\DESKTOP\FALL20\CS460\FRAMEWORK\FRAMEWORK\SRC\FRAMEWORK\SOURCE\SHADER.CPP
/c /IC:\USERS\EMILIA\DESKTOP\FALL20\CS460\FRAMEWORK\FRAMEWORK\SRC\DEPENDENCIES/INCLUDE /IC:\USERS\EMILIA\DESKTOP\FALL20\CS460\FRAMEWORK\FRAMEWORK\SRC\DEPENDENCIES/SRC /IC:\USERS\EMILIA\DESKTOP\FALL20\CS460\FRAMEWORK\FRAMEWORK\SRC\DEPENDENCIES\SRC\IMGUI /AIC:\USERS\EMILIA\DESKTOP\FALL20\CS460\FRAMEWORK\FRAMEWORK\SRC\/DEPENDENCIES/INCLUDE /AIC:\USERS\EMILIA\DESKTOP\FALL20\CS460\FRAMEWORK\FRAMEWORK\SRC\/DEPENDENCIES/SRC /ZI /JMC /nologo /W3 /WX- /diagnostics:column /sdl /Od /D _DEBUG /D _CONSOLE /D _UNICODE /D UNICODE /Gm- /EHsc /RTC1 /MDd /GS /fp:precise /permissive- /Zc:wchar_t /Zc:forScope /Zc:inline /Fo"X64\DEBUG\\" /Fd"X64\DEBUG\VC142.PDB" /Gd /TP /FC C:\USERS\EMILIA\DESKTOP\FALL20\CS460\FRAMEWORK\FRAMEWORK\SRC\FRAMEWORK\SOURCE\SHADER.CPP
^C:\USERS\EMILIA\DESKTOP\FALL20\CS460\FRAMEWORK\FRAMEWORK\SRC\FRAMEWORK\SOURCE\TRANSFORM.CPP
/c /IC:\USERS\EMILIA\DESKTOP\FALL20\CS460\FRAMEWORK\FRAMEWORK\SRC\DEPENDENCIES/INCLUDE /IC:\USERS\EMILIA\DESKTOP\FALL20\CS460\FRAMEWORK\FRAMEWORK\SRC\DEPENDENCIES/SRC /IC:\USERS\EMILIA\DESKTOP\FALL20\CS460\FRAMEWORK\FRAMEWORK\SRC\DEPENDENCIES\SRC\IMGUI /AIC:\USERS\EMILIA\DESKTOP\FALL20\CS460\FRAMEWORK\FRAMEWORK\SRC\/DEPENDENCIES/INCLUDE /AIC:\USERS\EMILIA\DESKTOP\FALL20\CS460\FRAMEWORK\FRAMEWORK\SRC\/DEPENDENCIES/SRC /ZI /JMC /nologo /W3 /WX- /diagnostics:column /sdl /Od /D _DEBUG /D _CONSOLE /D _UNICODE /D UNICODE /Gm- /EHsc /RTC1 /MDd /GS /fp:precise /permissive- /Zc:wchar_t /Zc:forScope /Zc:inline /Fo"X64\DEBUG\\" /Fd"X64\DEBUG\VC142.PDB" /Gd /TP /FC C:\USERS\EMILIA\DESKTOP\FALL20\CS460\FRAMEWORK\FRAMEWORK\SRC\FRAMEWORK\SOURCE\TRANSFORM.CPP
